%YAML 1.1
%TAG !u! tag:unity3d.com,2011:
--- !u!221 &22100000
AnimatorOverrideController:
  m_ObjectHideFlags: 0
  m_PrefabParentObject: {fileID: 0}
  m_PrefabInternal: {fileID: 0}
  m_Name: Enemy Strong
  m_Controller: {fileID: 9100000, guid: 45c8df34c753e2d4d8ca3281937ba6a6, type: 2}
  m_Clips:
  - m_OriginalClip: {fileID: 7400000, guid: d225a61474599e84693876a877cdd884, type: 2}
    m_OverrideClip: {fileID: 7400000, guid: cc5fc717c65e35642973c4a989335d5c, type: 2}
  - m_OriginalClip: {fileID: 7400000, guid: 7a2697794f2dbd042b1db725c47bc298, type: 2}
    m_OverrideClip: {fileID: 7400000, guid: 2824733b914bb03478a9813b37916500, type: 2}
